SalePrice,PredictedSalePrice
147000,157905.0
82000,94884.0
144000,169103.0
91000,96187.0
176432,185070.0
62383,98667.0
155000,166309.0
183200,193045.0
124000,175829.0
117000,109977.0
255500,265104.0
122000,187399.0
120000,77204.0
386250,384772.0
144500,168702.0
172000,180670.0
193500,207593.0
197900,230878.0
169000,214840.0
120000,114786.0
244000,240456.0
148000,122118.0
153000,129919.0
159000,166004.0
124500,165279.0
138887,139791.0
82000,74362.0
139600,125348.0
132500,143365.0
168500,160136.0
124900,96048.0
145000,167211.0
179500,185217.0
86000,26589.0
114504,125013.0
145000,97875.0
132500,117345.0
128000,133139.0
149900,191627.0
162000,159326.0
202500,215188.0
151000,154737.0
270000,278415.0
230000,236895.0
147000,129172.0
167500,141735.0
167000,180434.0
189000,232202.0
305900,285363.0
110000,94023.0
100000,164328.0
145250,152422.0
132000,123609.0
217000,235944.0
175500,228300.0
116000,129441.0
139000,132841.0
106500,74148.0
167900,182247.0
89471,102499.0
121600,98425.0
129000,105693.0
106500,97585.0
193500,212498.0
180000,209742.0
191000,220369.0
182000,211730.0
132000,100984.0
181000,220369.0
109900,101164.0
134900,141071.0
98300,119644.0
144000,145706.0
135000,80749.0
153500,159961.0
261500,290186.0
143000,170310.0
172500,179935.0
119200,125991.0
136500,159220.0
140000,145048.0
186700,183020.0
220000,254261.0
226000,245072.0
178000,237629.0
230000,211365.0
161000,206456.0
250000,263802.0
219500,184935.0
149500,172600.0
170000,132470.0
206900,207169.0
237000,268531.0
169000,180834.0
150500,135322.0
86000,118353.0
82500,180697.0
360000,332403.0
157900,156207.0
281213,317862.0
239799,262368.0
275000,293303.0
145000,148268.0
76500,105853.0
340000,288091.0
466500,402793.0
128000,108621.0
98000,66250.0
210000,237573.0
179200,177281.0
233230,260384.0
140000,158094.0
262280,266392.0
240000,221531.0
133000,111603.0
137500,180698.0
268000,273324.0
320000,314822.0
84500,54130.0
160000,168795.0
117000,116267.0
221000,217271.0
106250,57669.0
204750,212637.0
207000,209581.0
189000,207473.0
187100,209396.0
203000,213110.0
129500,194830.0
204000,214120.0
196000,193871.0
228500,241975.0
177000,136198.0
157000,158704.0
171000,159666.0
176500,169966.0
147000,161453.0
315000,289866.0
173000,180857.0
141000,169749.0
99500,116352.0
165000,161738.0
213500,233514.0
121500,151548.0
61000,48624.0
287000,286262.0
198900,211663.0
84500,121322.0
227680,246652.0
76000,106542.0
174000,199326.0
219210,252532.0
219500,242515.0
231500,232094.0
155000,163552.0
132000,117387.0
127000,116606.0
198500,225188.0
139400,108073.0
89500,130849.0
170000,169861.0
95000,104370.0
208900,210988.0
215000,232159.0
139000,109734.0
193000,208993.0
160000,124795.0
185000,192199.0
148000,165596.0
135000,152309.0
99900,66052.0
172500,251760.0
188500,206227.0
211000,212033.0
147000,120172.0
127500,136525.0
171750,212842.0
73000,89280.0
395192,334580.0
140000,195256.0
159500,174218.0
179540,207256.0
183900,213030.0
272000,267842.0
173733,184111.0
140000,139947.0
137900,190912.0
274000,287763.0
125000,155482.0
257000,259720.0
174500,205044.0
176000,175808.0
132500,127635.0
144000,132260.0
187500,235105.0
122500,156943.0
142500,168118.0
245000,254520.0
302000,322389.0
160000,189266.0
156000,162482.0
110000,84406.0
377500,319207.0
134500,98707.0
177000,171713.0
164990,201670.0
119500,123280.0
119000,135415.0
200500,261963.0
151400,247087.0
187000,189322.0
192000,221824.0
110000,169326.0
93500,103159.0
130000,100694.0
135000,133082.0
136000,219775.0
319900,309977.0
155000,168109.0
176000,164387.0
123600,88328.0
207500,185077.0
214000,220925.0
55000,88826.0
163500,102217.0
139000,119555.0
128500,138376.0
144000,116633.0
116500,81437.0
270000,282566.0
110000,101272.0
375000,222510.0
303477,346215.0
167500,224370.0
129000,124598.0
137500,234161.0
178000,178212.0
176000,151058.0
345000,338393.0
152000,142022.0
115000,178252.0
149900,90504.0
224500,228638.0
115000,137628.0
228000,265440.0
311872,282356.0
178000,192345.0
180000,176150.0
175000,186748.0
164500,141292.0
211000,196580.0
140000,218772.0
167240,202438.0
80000,111494.0
485000,406069.0
256300,256367.0
124500,98317.0
148500,168170.0
745000,523961.0
115000,124311.0
372402,266018.0
108000,113101.0
123000,117775.0
149500,175008.0
263435,245627.0
160000,154923.0
121000,137182.0
136000,133557.0
136500,103016.0
157500,161554.0
144000,158292.0
235000,256881.0
131500,127125.0
248000,233725.0
235000,252291.0
134000,127054.0
134000,155263.0
133500,101572.0
287000,326987.0
149300,169749.0
289000,203731.0
242000,239223.0
173000,201973.0
150900,176514.0
176500,200034.0
127000,119838.0
230000,207384.0
250000,280661.0
159434,131579.0
311500,233150.0
174000,191289.0
141000,167708.0
143000,166167.0
129000,101610.0
185000,209085.0
285000,276939.0
236000,266925.0
100000,68472.0
157000,194926.0
129000,115787.0
126175,82202.0
310000,350070.0
213250,226659.0
140000,161525.0
134432,130384.0
108000,105436.0
125000,121839.0
105000,97852.0
107500,91623.0
165000,158143.0
190000,171132.0
181000,186693.0
167000,184834.0
185900,217959.0
317000,316743.0
180500,189563.0
130000,139816.0
325000,309345.0
159000,209206.0
139900,139191.0
186000,178337.0
228500,279325.0
224000,202190.0
215000,193469.0
236500,244400.0
213000,224625.0
162000,161510.0
143250,142539.0
113000,150675.0
225000,276661.0
194500,196399.0
237500,214639.0
197000,218320.0
202900,256817.0
229000,271006.0
106000,137353.0
137500,121804.0
64500,58542.0
135500,129098.0
279500,230333.0
120500,81697.0
280000,276701.0
170000,145878.0
146500,159807.0
310000,314807.0
150000,142553.0
127000,101572.0
149000,143923.0
339750,322645.0
185000,162888.0
250580,207350.0
108000,73406.0
144000,102223.0
263000,255499.0
147000,142902.0
200000,203925.0
140000,172304.0
250000,227152.0
113000,77281.0
137500,100420.0
155000,192619.0
118500,154558.0
140000,151348.0
180000,135989.0
